,cluster,x1,x2
0,0,113.17103768034454,296.1536160671162
1,0,104.81522644135416,300.9319537267811
2,0,104.8289335853329,285.04294955558737
3,0,111.0263155050268,320.3331569297805
4,0,81.50255866721068,275.0474389546748
5,0,135.92691674194012,313.5002560773495
6,0,177.7857715244631,320.8170891502218
7,0,163.6185414463866,311.66686986103883
8,0,158.51107562371539,346.5776452931628
9,0,163.77642597660508,330.65177534959116
10,0,171.67441196430556,371.17653670469537
11,0,146.3899011913049,285.3598530830342
12,0,74.62806352591194,311.16422362198267
13,0,87.95044392774042,376.1550510157879
14,0,101.3048935680994,386.11867470236876
15,0,114.2948819203457,375.1897664585409
16,0,120.09548495509955,393.101821140137
17,0,142.77488679540545,389.07402048123663
18,0,90.61706626008568,351.61125759939966
19,0,194.3101136210316,241.30982456664313
20,0,197.77942882280774,255.21360302063485
21,0,194.3228979067186,281.9848369210231
22,0,191.2425480537497,269.55198052524025
23,0,178.22479131861385,270.18045003238444
24,0,210.23957518894508,241.186802680327
25,0,227.45070573367843,259.12933303718813
26,0,164.8242350806007,219.68297336467393
27,0,182.96907121801956,218.59212028725628
28,0,147.82753404860844,195.79372396136088
29,0,125.68518959767604,244.72782855235488
30,0,138.30789325200607,239.53477839783608
31,0,185.08959437988315,427.8344166945418
32,0,177.52326462404181,431.7742882265712
33,0,154.0177255790705,423.3661859310458
34,0,210.95593362866416,446.2252547581125
35,0,226.7290235096419,445.6911395453311
36,0,181.6793957088274,487.4137091979895
37,0,163.7423606128203,483.1845112866334
38,0,160.5380786627001,460.45354398653984
39,0,162.94768484961253,462.9667779713082
40,0,156.16221903661625,459.9744517930241
41,0,134.7914792895169,494.2240472223877
42,1,414.5738053946209,172.86563379370426
43,1,418.14406966786316,182.09003406112373
44,1,425.43740712050834,167.0859023225481
45,1,390.49901318932365,168.97563812900057
46,1,380.7027528405172,167.7924297391771
47,1,422.1563587316217,141.25975054642225
48,1,438.9035192795971,138.5691344313907
49,1,456.4234215869152,214.35857430245557
50,1,467.63795435749734,226.37666929716744
51,1,453.7632633282218,189.0108192136364
52,1,442.8987496208753,200.94399110124147
53,1,471.5407408944249,246.74498409383995
54,1,483.28090631559724,170.0753199497207
55,1,475.20034547826407,163.86323327781744
56,1,486.49774996092276,158.7355527259825
57,1,498.9582826103455,196.76761646953102
58,1,496.0865474137531,186.2740121846084
59,1,481.7997678724943,121.44873864401589
60,1,487.26207497292984,122.91120673988236
61,1,462.2816572069384,95.78399737855531
62,2,402.8778079181735,286.35721349107786
63,2,407.25883064757693,293.6444196993142
64,2,413.17287483487996,304.8076580414612
65,2,416.35053051462035,305.5228752973193
66,2,403.6632207189744,266.37446326823004
67,2,440.78746694703597,300.060766068419
68,2,445.75137744633753,302.92239457702567
69,2,443.28500780148596,311.03264586247457
70,2,357.6974811783857,241.1676677613505
71,2,369.66066590967944,256.5927948738167
72,3,85.05572132373602,201.2865150182132
73,3,61.68954543169952,175.7030679955299
74,4,214.68582995857375,191.96754374617402
75,4,212.13618375966684,192.48544999665023
76,4,216.15396877863398,161.54770611742003
77,4,254.48689561150545,159.53379640628452
78,4,249.00367835453324,152.97600898293973
79,4,237.37378988300958,129.5040740166711
80,5,59.162308401176865,481.37339366078817
81,5,51.702124482310495,480.9206603466459
82,5,37.667204299171594,470.42790619815287
83,5,32.746620721599896,474.333286804985
84,5,84.05972994593091,459.1288300333782
85,6,389.061093572086,361.6294749960001
86,6,377.7431069937878,360.0865250490216
87,6,380.73094416530176,327.82105873409785
88,7,350.9168463109297,46.759610730835114
89,7,352.7308556731732,42.69589379308453
90,7,339.80587846382724,34.10206193888343
91,7,319.0551013185776,23.898271999159004
92,7,375.1499307209759,80.72584892405081
93,7,373.65980967523177,64.75734022804815
94,7,411.3451147705043,104.29992929937788
95,7,407.37203997474154,81.71130957461331
96,8,24.582713503182248,49.354981797836544
97,8,25.481058762549022,35.65227438816054
98,8,35.53610158744702,76.26393320342568
99,8,7.686712291188557,86.86205274526688
100,9,145.78540182142675,105.0213119445133
101,9,125.97234168337965,100.14493346972796
102,9,123.843130707138,124.36673027982194
103,9,100.10048805425127,135.0517546735921
104,9,127.67724693008131,152.93166751446697
105,9,130.92077760308862,163.58313238803882
106,9,147.81344800357877,141.92966799437858
107,9,168.99233360495697,161.89784729473783
108,9,170.48569187132944,146.74109823492702
109,10,30.0657592473067,148.34733985769358
110,10,28.531493923165783,153.9690852870775
111,10,2.7347238957993736,150.59896333039993
112,10,39.249501496897885,122.1950721842452
113,11,322.5206353065656,447.133430101006
114,11,326.6846114014657,446.9000343659951
115,11,315.75364415627064,455.1284293571903
116,11,334.03836216281087,427.1440391733482
117,11,342.9918100182496,432.21443322917884
118,11,295.2178174806428,465.3123454389501
119,11,298.78109165402884,468.0100507564591
120,11,290.50670364565036,460.65178837370485
121,11,368.53327741994866,431.57947638839244
122,11,366.86754309123717,439.6371124581034
123,11,366.61713681007285,419.28709058758653
124,11,383.24992164996314,427.74638481058645
125,11,377.5580958941062,494.5923128968042
126,11,373.47471077708764,475.9007699275178
127,11,353.55362403935135,471.0737775855633
128,11,341.44276370449575,467.51910324456856
129,11,289.8808145023028,492.239455419007
130,12,260.1553758905982,367.66420939998324
131,12,256.93041854642536,382.7594997229709
132,12,229.92893333303226,361.80743802683287
133,12,221.35719228854703,358.5279096516793
134,12,244.98717311419858,358.55461181274114
135,12,237.96869774066545,389.9286992098468
136,12,271.790150709883,398.0827317851002
137,12,293.1324248233961,385.82903349697614
138,12,255.8193240364196,335.4950116601029
139,12,259.17352583297765,335.7745288086352
140,12,259.29602559962984,316.86748038195657
141,12,250.92692497430343,299.7357394897978
142,12,266.3743234970886,288.20167343296913
143,13,47.78447112076429,232.42937269792503
144,13,72.77748160286485,235.54069661693885
145,14,457.5574690399305,41.898332843262175
146,14,466.88601844192664,44.20114014069415
147,14,474.89473533099465,27.09242332038964
148,14,489.13161506731177,55.717984558057324
149,14,418.3586762814744,36.10271940584874
150,14,433.7831575448777,33.72065110935396
151,15,453.7586605324491,424.08799785692383
152,15,454.88186750344056,430.2406116617128
153,15,436.61212897672766,416.60141293439705
154,15,440.5877619613997,391.98191826654534
155,16,323.1806073710163,217.19968459940208
156,16,323.0601795073557,212.4862965012867
157,16,325.0807118554849,204.2587049867832
158,16,301.25511971850483,197.30669110850732
159,17,252.82735946497016,89.6026034686645
160,17,256.26688985892554,90.4882302462638
161,17,279.2336507388296,89.33259519868065
162,17,300.4208905932035,101.26506964522319
163,17,201.56647735416692,70.52646681534912
164,17,198.37998434654446,62.08146840114532
165,17,211.4997887310133,84.22938633368204
166,17,208.6862161081173,44.54152394659878
167,17,238.30838740213719,69.59132874556893
168,17,224.0104140984623,65.53282032134427
169,18,71.45352475031062,20.430986750593625
170,18,91.31592264810836,24.262291554924875
171,18,60.672067855913326,0.6884942237106451
172,19,197.5564434072755,5.1958176862434415
173,19,211.6768245903368,0.05718657029241125
174,20,323.46858525031826,319.4685317664741
175,20,325.25649432618286,331.063573614859
176,21,338.67364858670436,367.24468272071414
177,21,342.7746078917206,370.2322854309455
178,21,345.93516118512156,379.14264466016334
179,22,37.70578094450988,385.1560279277224
180,22,29.24063603128896,383.39670319689753
181,23,363.8087546626925,122.76987218503427
182,23,368.72186605154695,121.04377906893777
183,24,321.5947899324776,270.9246550510217
184,24,320.83783012676486,267.7322228302927
185,25,435.41847223855314,355.3777207078797
186,26,452.59587101475205,467.6714900850805
187,27,139.5013802256169,53.14659264656407
188,28,159.702969911579,15.372885196404006
189,29,324.33222359948775,128.93597172663252
190,30,484.5402236843393,387.7139703570781
191,31,384.63742805493894,6.9984086951450655
192,32,8.024085648062506,435.85522866346105
193,33,255.9012301767193,8.564082284879648
194,34,4.603056882663326,341.0401259741161
195,35,2.177896017193315,225.16046047532032
196,36,14.839963160972244,297.3775737523548
197,37,418.40781851151985,484.59292277695135
198,38,249.0187179383133,493.96970060562484
199,39,498.9575820724217,346.6980656733052
