2,1,0
3,1,0
3,2,0
4,1,1
4,2,5
4,3,0
5,1,1
5,2,2
5,3,0
5,4,1
6,1,0
6,2,0
6,3,1
6,4,0
6,5,0
7,1,1
7,2,4
7,3,1
7,4,4
7,5,0
7,6,0
8,1,1
8,2,3
8,3,1
8,4,3
8,5,0
8,6,2
8,7,5
9,1,0
9,2,2
9,3,0
9,4,1
9,5,0
9,6,1
9,7,1
9,8,2
10,1,0
10,2,1
10,3,1
10,4,1
10,5,0
10,6,1
10,7,0
10,8,0
10,9,0
